<?xml version="1.0" encoding="UTF-8" standalone="no"?>
<svg
   xmlns:dc="http://purl.org/dc/elements/1.1/"
   xmlns:cc="http://creativecommons.org/ns#"
   xmlns:rdf="http://www.w3.org/1999/02/22-rdf-syntax-ns#"
   xmlns:svg="http://www.w3.org/2000/svg"
   xmlns="http://www.w3.org/2000/svg"
   xmlns:sodipodi="http://sodipodi.sourceforge.net/DTD/sodipodi-0.dtd"
   xmlns:inkscape="http://www.inkscape.org/namespaces/inkscape"
   height="24"
   viewBox="0 0 120 24"
   width="120"
   version="1.1"
   id="svg3763"
   sodipodi:docname="1.5_star.svg"
   inkscape:version="0.92.3 (2405546, 2018-03-11)"
   style="fill:none;stroke:#000000;stroke-width:2;stroke-linecap:round;stroke-linejoin:round">
  <metadata
     id="metadata3769">
    <rdf:RDF>
      <cc:Work
         rdf:about="">
        <dc:format>image/svg+xml</dc:format>
        <dc:type
           rdf:resource="http://purl.org/dc/dcmitype/StillImage" />
        <dc:title></dc:title>
      </cc:Work>
    </rdf:RDF>
  </metadata>
  <defs
     id="defs3767" />
  <sodipodi:namedview
     pagecolor="#ffffff"
     bordercolor="#666666"
     borderopacity="1"
     objecttolerance="10"
     gridtolerance="10"
     guidetolerance="10"
     inkscape:pageopacity="0"
     inkscape:pageshadow="2"
     inkscape:window-width="1362"
     inkscape:window-height="729"
     id="namedview3765"
     showgrid="false"
     inkscape:zoom="8"
     inkscape:cx="58.899154"
     inkscape:cy="20.972268"
     inkscape:window-x="0"
     inkscape:window-y="18"
     inkscape:window-maximized="0"
     inkscape:current-layer="svg3763" />
  <path
     style="stroke-width:2.09800839"
     d="M 12.027917,1.9519803 8.7976915,8.5192167 1.5497048,9.5737121 6.795485,14.686011 l -1.2413677,7.207943 6.4737997,-3.403751 6.487149,3.403751 -1.241369,-7.207943 5.24578,-5.1122989 -7.247986,-1.0544954 z"
     id="polygon3761"
     inkscape:connector-curvature="0" />
  <polygon
     points="22,9.27 17,14.14 18.18,21.02 12,17.77 5.82,21.02 7,14.14 2,9.27 8.91,8.26 12,2 15.09,8.26 "
     id="polygon3761-6"
     transform="matrix(1.0490041,0,0,1.0490041,47.285465,-0.15053544)" />
  <polygon
     points="15.09,8.26 22,9.27 17,14.14 18.18,21.02 12,17.77 5.82,21.02 7,14.14 2,9.27 8.91,8.26 12,2 "
     id="polygon3761-7"
     transform="matrix(1.0490041,0,0,1.0490041,71.205155,-0.15053544)" />
  <polygon
     points="15.09,8.26 22,9.27 17,14.14 18.18,21.02 12,17.77 5.82,21.02 7,14.14 2,9.27 8.91,8.26 12,2 "
     id="polygon3761-5"
     transform="matrix(1.0490041,0,0,1.0490041,95.124845,-0.15053544)" />
  <path
     style="fill:#000000;stroke-width:0.59739488"
     d="M 7.6026843,16.922591 8.0626777,14.230196 6.1424836,12.292781 C 5.0863767,11.227202 3.0985831,10.35435 3.2581213,10.353109 3.7561901,10.349235 8.6576212,9.7437743 9.2320396,9.5696075 9.557469,9.4709361 10.214561,8.436499 10.856208,7.0127362 L 11.93383,4.6215805 11.98112,17.119029 c 0.01166,3.071301 -4.1225582,1.028172 -2.31808,1.256202 0.85532,0.108082 1.696348,-1.337376 2.245884,-1.239756 v 0 0 0 l 0.223963,0.354333 c 0.755876,1.195849 -0.223963,-0.354333 4.766374,2.048328 2.25e-4,0.03984 -5.950316,-3.623626 -5.003438,-2.419318 l 0.01312,0.01668 -2.2458838,1.239755 C 8.427807,19.057097 7.3236967,19.553495 7.279925,19.614986 2.931773,25.723227 7.3427996,18.443807 7.6026843,16.922591 Z"
     id="path3862"
     inkscape:connector-curvature="0"
     sodipodi:nodetypes="scsscscscccccscscsss" />
  <path
     inkscape:connector-curvature="0"
     style="stroke-width:2.09800839"
     d="m 35.941995,1.9575587 -3.230225,6.5672368 -7.247987,1.0544947 5.245781,5.1122988 -1.241368,7.207943 6.473799,-3.403751 6.487149,3.403751 -1.241369,-7.207943 5.24578,-5.1122988 -7.247985,-1.0544947 z"
     id="polygon3761-3" />
  <path
     style="fill:#000000;stroke-width:0.59739488"
     d="m 31.516763,16.928169 0.459994,-2.692394 -1.920194,-1.937416 C 29.000456,11.23278 27.012662,10.359928 27.1722,10.358687 c 0.498069,-0.0039 5.3995,-0.6093346 5.973918,-0.7835014 0.325429,-0.098672 0.982521,-1.1331078 1.624168,-2.5568707 l 1.077622,-2.3911557 0.04729,12.4974478 c 0.01166,3.071301 -4.122557,1.028172 -2.31808,1.256202 0.855321,0.108083 1.696348,-1.337375 2.245884,-1.239756 v 0 0 0 l 0.223964,0.354333 c 0.755875,1.195849 -0.223964,-0.354333 4.766374,2.048328 2.25e-4,0.03984 -5.950317,-3.623626 -5.003438,-2.419318 l 0.01312,0.01668 -2.245884,1.239755 c -1.235257,0.681848 -2.339366,1.178246 -2.383138,1.239737 -4.348152,6.108242 0.06288,-1.171179 0.322759,-2.692395 z"
     id="path3862-5"
     inkscape:connector-curvature="0"
     sodipodi:nodetypes="scsscscscccccscscsss" />
  <path
     style="fill:#000000;stroke-width:0.27871925"
     d="m 15.442925,18.287752 c -0.68983,-0.417815 -1.675954,-0.963013 -2.191387,-1.211553 l -0.937151,-0.45189 0.0036,-5.783426 0.0036,-5.7834256 1.026814,2.1231 c 0.727135,1.503466 1.121755,2.1663585 1.352121,2.2713195 0.178919,0.081518 1.476854,0.3190408 2.884302,0.5278255 l 2.558996,0.3796066 -1.967222,1.895055 c -1.769949,1.705019 -1.96713,1.942285 -1.966298,2.366022 8.08e-4,0.415328 0.406928,3.013072 0.634623,4.059477 0.04586,0.21078 0.03137,0.379708 -0.03219,0.375396 -0.06356,-0.0043 -0.680003,-0.349693 -1.369829,-0.767507 z"
     id="path4013"
     inkscape:connector-curvature="0" />
  <path
     style="fill:#000000;stroke-width:0.25"
     d="M 4.9535111,22.618659 C 4.5071552,22.267556 4.5186572,22.051668 5.1861189,18.252732 l 0.5600341,-3.1875 -2.4917983,-2.4375 C 1.8838657,11.287107 0.70910559,10.047176 0.64377666,9.8723307 0.49978223,9.4869455 0.7371285,8.8320607 1.0666202,8.7056229 1.2395584,8.6392602 7.8116322,7.627732 8.0698635,7.627732 c 0.034965,0 0.7653775,-1.4203125 1.6231387,-3.15625 0.8577608,-1.7359375 1.6539238,-3.2265625 1.7692498,-3.3125 0.30379,-0.22637444 0.966267,-0.19172055 1.194811,0.0625 0.108161,0.1203125 0.881846,1.596875 1.719301,3.28125 0.837453,1.684375 1.531113,3.0716125 1.541467,3.0827501 0.01035,0.011138 1.593823,0.2506126 3.518823,0.5321669 3.281353,0.4799371 3.51757,0.5318169 3.78125,0.8304704 0.578863,0.6556413 0.496816,0.782367 -2.296394,3.5468576 l -2.581286,2.554745 0.582161,3.382755 c 0.320189,1.860515 0.580949,3.483749 0.579465,3.607186 -0.004,0.332748 -0.569425,0.838069 -0.937753,0.838069 -0.176781,0 -1.26215,-0.497814 -2.411931,-1.106253 -1.149782,-0.608438 -2.549867,-1.343507 -3.111302,-1.633487 l -1.02079,-0.527235 -3.1108966,1.633487 c -1.710993,0.898419 -3.2268643,1.633488 -3.3686028,1.633488 -0.1417384,0 -0.405917,-0.116583 -0.5870635,-0.259073 z M 17.124154,19.892304 c 0,-0.06074 -0.153618,-0.139793 -0.341373,-0.175686 -0.319309,-0.06104 -0.325844,-0.0539 -0.101109,0.110429 0.274695,0.200861 0.442482,0.225607 0.442482,0.06526 z m -0.08167,-0.612375 c -0.03946,-0.150912 -0.124083,-0.242045 -0.18804,-0.202517 -0.06396,0.03953 -0.259318,-0.02185 -0.434134,-0.136394 -0.525846,-0.344547 -0.451917,-0.140427 0.103843,0.286714 0.28507,0.219096 0.534458,0.382207 0.554196,0.36247 0.01974,-0.01974 0.0036,-0.159361 -0.03587,-0.310273 z M 12.231471,4.627732 c -0.056,-0.105299 -0.09303,0.2509055 -0.08446,0.8125 l 0.01526,1 0.08446,-0.8125 c 0.04645,-0.446875 0.03958,-0.896875 -0.01526,-1 z"
     id="path193"
     inkscape:connector-curvature="0" />
  <path
     style="fill:#000000;stroke-width:0.25"
     d="m 17.794344,22.643474 c -0.402979,-0.180708 -1.84013,-0.905052 -3.193668,-1.609652 -1.353537,-0.704599 -2.513884,-1.28109 -2.57855,-1.28109 -0.06466,0 -1.460351,0.702462 -3.1015228,1.561029 -1.7438056,0.912257 -3.130229,1.56164 -3.3359171,1.5625 C 5.0881207,22.878336 4.7952984,22.689947 4.6507996,22.275438 4.5054134,21.858382 4.4699597,22.154449 5.1372392,18.213264 L 5.6624314,15.111298 3.0807925,12.518968 C 0.29057564,9.7171957 0.2141068,9.5980597 0.7821186,8.9377066 1.0480043,8.6285961 1.2537786,8.5798004 4.1913465,8.1292671 5.9107911,7.8655569 7.4844809,7.6307675 7.6884347,7.6075129 8.0377801,7.5676811 8.1534564,7.3805981 9.6854569,4.377732 11.421807,0.97432077 11.565116,0.78940127 12.319292,0.97915142 c 0.331594,0.0834287 0.521914,0.39638008 1.954733,3.21425418 0.873055,1.7170045 1.60638,3.1702375 1.62961,3.2294066 0.02323,0.059169 1.49821,0.3251655 3.277731,0.591103 1.779521,0.2659374 3.423738,0.545649 3.653814,0.6215812 0.253096,0.083529 0.493335,0.2831187 0.608242,0.5053241 0.171658,0.3319502 0.169817,0.4096321 -0.01916,0.8078631 -0.11499,0.2423284 -1.290962,1.4926864 -2.613268,2.7785734 l -2.404194,2.337975 0.40844,2.375 c 0.224642,1.30625 0.491121,2.899821 0.592175,3.541271 l 0.183735,1.16627 -0.294516,0.350013 c -0.416357,0.494811 -0.669092,0.519321 -1.50229,0.145688 z"
     id="path195"
     inkscape:connector-curvature="0" />
  <path
     style="fill:#000000;stroke-width:0.25"
     d="m 28.805972,22.570913 c -0.16875,-0.16875 -0.306818,-0.433427 -0.306818,-0.588172 0,-0.154745 0.256529,-1.771693 0.570065,-3.593217 l 0.570065,-3.311861 -2.538815,-2.531551 c -2.170604,-2.164393 -2.544205,-2.5918948 -2.575981,-2.9476193 -0.0274,-0.306714 0.04022,-0.4887696 0.257278,-0.6926823 0.255598,-0.2401227 0.753882,-0.3427158 3.777076,-0.7776738 1.915448,-0.2755827 3.497891,-0.5163175 3.51654,-0.5349661 0.01865,-0.018649 0.687533,-1.3825639 1.48641,-3.0309226 0.798876,-1.6483588 1.571401,-3.1235784 1.716722,-3.2782659 0.165599,-0.1762738 0.411249,-0.28125 0.65814,-0.28125 0.248415,0 0.489617,0.1038875 0.652994,0.28125 0.14249,0.1546875 0.940021,1.6453125 1.772289,3.3125 0.832269,1.6671875 1.53473,3.03125 1.561024,3.03125 0.02629,0 1.58543,0.2269247 3.464748,0.5042774 3.805108,0.5615641 3.986445,0.6284422 3.986445,1.4702282 0,0.39555 -0.210699,0.6374814 -2.566518,2.9469604 l -2.566517,2.516034 0.566517,3.225741 c 0.311585,1.774158 0.566518,3.415388 0.566518,3.647178 0,0.472023 -0.460789,0.940453 -0.923108,0.938416 -0.145416,-6.25e-4 -1.66429,-0.731891 -3.375275,-1.625 -1.710986,-0.89311 -3.123048,-1.623835 -3.137915,-1.623835 -0.01487,0 -1.417364,0.73125 -3.116659,1.625 -1.699294,0.89375 -3.228851,1.625 -3.399016,1.625 -0.170165,0 -0.447459,-0.138069 -0.616209,-0.306819 z m 12.318182,-2.693181 c 0,-0.06875 -0.07977,-0.125 -0.177277,-0.125 -0.0975,0 -0.280315,-0.03201 -0.40625,-0.07113 -0.125936,-0.03912 -0.08835,0.01513 0.08353,0.12057 0.369051,0.226396 0.5,0.246186 0.5,0.07556 z m -0.492965,-2.562174 c -0.210119,-1.218122 -0.382035,-2.408849 -0.382035,-2.646056 0,-0.392683 0.179252,-0.60571 2.00252,-2.379843 1.101385,-1.071705 1.98377,-1.967304 1.960855,-1.990219 -0.02292,-0.02292 -1.219363,-0.215231 -2.65877,-0.427367 C 40.030037,9.6475109 38.813241,9.4063769 38.641255,9.294899 38.454997,9.1741706 37.93651,8.2650624 37.237929,6.8343297 l -1.107927,-2.2690977 -0.0029,6.068842 -0.0029,6.068842 0.59375,0.28409 c 1.123436,0.537527 2.969825,1.633 3.589875,2.129891 0.341617,0.273764 0.640096,0.47878 0.663285,0.455591 0.02319,-0.02319 -0.129755,-1.038806 -0.339875,-2.25693 z"
     id="path197"
     inkscape:connector-curvature="0" />
  <path
     style="fill:#000000;stroke-width:0.25"
     d="m 29.186654,22.876529 c -0.420176,-0.158473 -0.726312,-0.596823 -0.714205,-1.022656 0.0062,-0.219785 0.25079,-1.824362 0.543424,-3.565727 l 0.532061,-3.166119 -2.52439,-2.535354 c -2.473859,-2.484604 -2.52439,-2.545792 -2.52439,-3.0567661 0,-0.4170737 0.06201,-0.5620452 0.309907,-0.7244705 0.331054,-0.2169149 1.728733,-0.4761605 5.105538,-0.9469898 l 2.102945,-0.2932146 1.470816,-3 c 0.808949,-1.65 1.585064,-3.1378125 1.7247,-3.30625 0.187044,-0.2256243 0.377543,-0.30625 0.723594,-0.30625 0.347493,0 0.53439,0.079685 0.718291,0.30625 0.13672,0.1684375 0.918344,1.6444792 1.736944,3.2800929 0.818598,1.6356136 1.557302,2.9945333 1.641563,3.0198217 0.08426,0.025288 1.559452,0.2543573 3.278202,0.5090419 1.71875,0.2546846 3.30817,0.5383566 3.532045,0.6303821 0.446723,0.1836291 0.708701,0.6781269 0.583915,1.1021716 -0.04285,0.1456069 -1.205647,1.3984898 -2.583995,2.7841848 l -2.506089,2.519445 0.581205,3.454752 c 0.532111,3.162938 0.565725,3.484689 0.397935,3.809158 -0.425043,0.821941 -0.81032,0.725872 -4.300041,-1.072211 l -3.070173,-1.58191 -2.942401,1.511736 c -3.366816,1.729791 -3.479257,1.778417 -3.817401,1.650882 z m 11.31836,-5.92005 c -0.203344,-1.285537 -0.336609,-2.433845 -0.296144,-2.551793 0.04046,-0.11795 0.921212,-1.070262 1.957216,-2.116248 1.036005,-1.045987 1.858203,-1.92087 1.827106,-1.944184 -0.0311,-0.02331 -1.196101,-0.220482 -2.588898,-0.4381513 C 40.011496,9.6884332 38.76694,9.4541491 38.638615,9.3854715 38.51029,9.3167939 37.922029,8.3166446 37.331367,7.1629175 l -1.073929,-2.0976855 -0.0036,5.8125 -0.0036,5.8125 1.160759,0.590577 c 0.638419,0.324818 1.664724,0.923822 2.280679,1.331118 0.615955,0.407297 1.134111,0.727345 1.151457,0.711217 0.01735,-0.01613 -0.134833,-1.081126 -0.338178,-2.366665 z"
     id="path199"
     inkscape:connector-curvature="0" />
  <path
     style="fill:#000000;stroke-width:0.25"
     d="m 52.902774,22.794071 c -0.08738,-0.03516 -0.243209,-0.227 -0.346278,-0.426313 -0.173363,-0.335247 -0.142778,-0.624457 0.408375,-3.861529 l 0.595774,-3.49914 -2.597548,-2.533428 C 48.138659,9.7189429 48.043411,9.5721112 48.672688,8.9428344 49.013919,8.601603 48.829562,8.6404987 52.869612,8.057363 54.55149,7.814603 55.938297,7.6045626 55.951407,7.5906066 55.964517,7.5766506 56.69781,6.130857 57.580948,4.377732 c 1.734028,-3.44223461 1.84226,-3.57790074 2.636956,-3.3053802 0.292263,0.1002243 0.58425,0.595298 1.949455,3.3053802 0.883138,1.753125 1.614388,3.1964146 1.625,3.2073104 0.01061,0.010896 1.425545,0.2226336 3.144295,0.4705287 3.611337,0.5208629 3.985203,0.6070438 4.245477,0.9786369 0.440313,0.6286335 0.345189,0.7650169 -2.397502,3.437425 l -2.597975,2.5314 0.59533,3.503001 c 0.546987,3.218552 0.580351,3.531967 0.410872,3.859703 -0.41795,0.808227 -0.644392,0.747694 -4.20575,-1.124291 l -3.112952,-1.636287 -3.112953,1.636287 c -2.872325,1.509803 -3.418555,1.729606 -3.858427,1.552625 z m 4.352512,-4.041339 c 1.302448,-0.6875 2.480938,-1.25 2.618868,-1.25 0.137929,0 1.324476,0.566752 2.636772,1.259451 1.312295,0.692698 2.412265,1.233178 2.444376,1.201066 0.03211,-0.03211 -0.145162,-1.228353 -0.393943,-2.658316 -0.24878,-1.429964 -0.423229,-2.715756 -0.387665,-2.857317 0.03556,-0.141562 0.938705,-1.124833 2.006978,-2.185049 1.068275,-1.060216 1.92029,-1.949693 1.893367,-1.976616 -0.02692,-0.02692 -1.221973,-0.219432 -2.655668,-0.4277984 C 63.984676,9.6497865 62.6975,9.4070351 62.557979,9.3187051 62.418122,9.2301621 61.773152,8.0588567 61.120479,6.7081121 60.469375,5.3606159 59.908529,4.258119 59.874154,4.258119 c -0.03437,0 -0.595222,1.1024969 -1.246326,2.4499931 -0.652674,1.3507446 -1.297643,2.52205 -1.4375,2.610593 -0.139521,0.08833 -1.426697,0.3310814 -2.860392,0.5394475 -1.433694,0.2083664 -2.628745,0.4008754 -2.655668,0.4277984 -0.02692,0.02692 0.825092,0.9164 1.893366,1.976616 1.068275,1.060216 1.970733,2.040767 2.005463,2.179005 0.03473,0.138237 -0.13645,1.403432 -0.380399,2.811544 -0.478849,2.763988 -0.476891,2.749616 -0.374522,2.749616 0.03796,0 1.134662,-0.5625 2.43711,-1.25 z"
     id="path201"
     inkscape:connector-curvature="0" />
  <path
     style="fill:#000000;stroke-width:0.25"
     d="m 52.633226,22.548374 c -0.14249,-0.181146 -0.257646,-0.476458 -0.255902,-0.65625 0.0017,-0.179791 0.251722,-1.789392 0.555506,-3.576892 l 0.552336,-3.25 -2.442525,-2.4375 c -1.343388,-1.340625 -2.525363,-2.59615 -2.626612,-2.7900563 -0.163658,-0.3134305 -0.162131,-0.386066 0.01376,-0.654509 0.108816,-0.1660741 0.323627,-0.3827703 0.477357,-0.4815472 0.159413,-0.1024283 1.721012,-0.3851463 3.634429,-0.6579909 l 3.35492,-0.4783966 1.559473,-3.0910838 c 0.973038,-1.9286891 1.683643,-3.1887552 1.88967,-3.3508156 0.362772,-0.2853569 0.800943,-0.24988383 1.184648,0.095906 0.120249,0.1083658 0.901908,1.5524209 1.737021,3.2090111 0.835113,1.6565903 1.568509,3.044721 1.629769,3.0847348 0.06126,0.040014 0.657726,0.1436923 1.32548,0.2303967 2.123561,0.2757334 5.074809,0.7565931 5.497521,0.8957351 0.24267,0.079878 0.48494,0.2824032 0.59696,0.4990273 0.16912,0.327042 0.168028,0.404248 -0.01061,0.7496942 -0.10953,0.2118082 -1.289765,1.4633702 -2.622744,2.7812502 l -2.423596,2.396144 0.573261,3.395589 c 0.31623,1.873121 0.537879,3.536563 0.494346,3.710008 -0.0434,0.172932 -0.17339,0.408897 -0.28886,0.524368 -0.413168,0.413167 -1.106796,0.174476 -4.143126,-1.42573 -1.582871,-0.834204 -2.940208,-1.516735 -3.016304,-1.516735 -0.0761,0 -1.30372,0.612215 -2.728053,1.360479 -3.762844,1.976783 -4.026265,2.060458 -4.518123,1.435163 z m 4.708362,-3.890908 c 1.253964,-0.635104 2.404672,-1.154734 2.557128,-1.154734 0.152456,0 1.334298,0.535894 2.626315,1.190875 1.292018,0.654981 2.349123,1.13701 2.349123,1.071172 0,-0.06584 -0.16875,-1.158981 -0.375,-2.42921 -0.20625,-1.27023 -0.375,-2.487373 -0.375,-2.704765 0,-0.341875 0.261265,-0.661038 1.934482,-2.363183 l 1.934484,-1.967927 -1.153234,-0.15985 C 63.354946,9.6567935 62.702781,9.5094787 62.374154,9.1310987 62.202279,8.933203 61.584851,7.8108632 61.002092,6.6370102 c -0.582759,-1.173853 -1.089009,-2.1340815 -1.125,-2.133841 -0.03599,2.375e-4 -0.588617,1.0414468 -1.228057,2.3137917 -0.673914,1.340939 -1.280666,2.390701 -1.443449,2.4973607 -0.272936,0.1788344 -1.946774,0.5004901 -4.297165,0.8257714 l -1.153233,0.159601 1.934483,1.967927 c 1.673218,1.702145 1.934483,2.021308 1.934483,2.363183 0,0.217392 -0.16875,1.434535 -0.375,2.704765 -0.411468,2.534102 -0.416844,2.58227 -0.28125,2.519813 0.05156,-0.02375 1.11972,-0.562814 2.373684,-1.197916 z"
     id="path203"
     inkscape:connector-curvature="0" />
  <path
     style="fill:#000000;stroke-width:0.25"
     d="m 76.703511,22.618659 c -0.445142,-0.350148 -0.434024,-0.558552 0.232924,-4.365927 l 0.558363,-3.1875 -2.560322,-2.512646 c -2.278354,-2.235928 -2.560322,-2.5568975 -2.560322,-2.9144671 0,-0.4849412 0.167345,-0.8269222 0.459509,-0.9390359 0.170173,-0.065302 6.721241,-1.071351 6.976291,-1.071351 0.0348,0 0.791264,-1.455151 1.68103,-3.233669 0.889765,-1.7785179 1.710199,-3.2691429 1.823186,-3.3124999 0.413562,-0.15869849 0.895763,-0.074178 1.154835,0.2024189 0.144886,0.1546875 0.91627,1.628766 1.714185,3.2757299 0.797916,1.646964 1.462616,3.0054407 1.47711,3.0188373 0.01449,0.013397 1.59832,0.2554988 3.519611,0.5380047 3.851386,0.5663062 4.069243,0.6435732 4.069243,1.443237 0,0.3390857 -0.326777,0.7137861 -2.570049,2.9469611 l -2.57005,2.55848 0.57005,3.320481 c 0.313526,1.826266 0.570049,3.44601 0.570049,3.599433 0,0.375596 -0.538972,0.892586 -0.930537,0.892586 -0.174295,0 -1.702606,-0.73125 -3.396248,-1.625 -1.693642,-0.89375 -3.099684,-1.625 -3.12454,-1.625 -0.02485,0 -1.440264,0.73125 -3.145353,1.625 -1.705088,0.89375 -3.217036,1.625 -3.359884,1.625 -0.142848,0 -0.407934,-0.116583 -0.589081,-0.259073 z m 4.477048,-3.865927 c 1.323886,-0.6875 2.50799,-1.25 2.631342,-1.25 0.123352,0 1.293685,0.562885 2.600741,1.250856 1.307057,0.68797 2.405979,1.221344 2.442049,1.185273 0.03607,-0.03607 -0.138161,-1.256083 -0.387184,-2.711137 -0.330745,-1.932576 -0.419172,-2.715211 -0.328115,-2.904023 0.06856,-0.142158 0.979114,-1.083189 2.023457,-2.09118 1.044342,-1.007992 1.862517,-1.869279 1.818166,-1.913973 -0.04435,-0.04469 -1.225601,-0.251179 -2.625,-0.4588565 C 87.956616,9.6520139 86.684537,9.4007045 86.529174,9.3012262 86.360122,9.1929842 85.749641,8.1305201 85.008847,6.6552944 L 83.771,4.190232 82.56144,6.6633972 c -0.70318,1.4377797 -1.322642,2.546087 -1.479673,2.647349 -0.148562,0.095801 -1.310738,0.3223168 -2.582613,0.5033683 -1.271875,0.1810514 -2.472339,0.3691355 -2.667698,0.4179655 -0.348294,0.08706 -0.316106,0.126948 1.65625,2.052675 1.77709,1.735077 2.011448,2.010877 2.011448,2.367151 0,0.339566 -0.618443,4.176155 -0.817196,5.069576 -0.03441,0.154687 -0.02789,0.28125 0.01448,0.28125 0.04238,0 1.16023,-0.5625 2.484117,-1.25 z"
     id="path205"
     inkscape:connector-curvature="0" />
  <path
     style="fill:#000000;stroke-width:0.25"
     d="m 87.036257,21.372013 c -1.741925,-0.890605 -3.208191,-1.618679 -3.25837,-1.617942 -0.05018,7.36e-4 -1.441233,0.703001 -3.091233,1.560588 -2.927837,1.521742 -3.434401,1.707324 -3.93257,1.440712 -0.274971,-0.14716 -0.494563,-0.723283 -0.434068,-1.138822 0.02413,-0.165725 0.278313,-1.699923 0.564858,-3.409331 l 0.52099,-3.108014 -2.499334,-2.516986 C 73.531896,11.197876 72.370107,9.9582095 72.324777,9.8274041 72.173085,9.3896812 72.475928,8.7791642 72.912692,8.6421936 c 0.338113,-0.106033 3.857783,-0.6650105 6.211462,-0.986475 l 0.6875,-0.093898 1.572685,-3.0977647 c 0.864976,-1.7037707 1.665735,-3.1908155 1.779464,-3.3045441 0.322446,-0.32244606 1.067077,-0.26833151 1.368743,0.099471 0.13815,0.1684375 0.898399,1.628125 1.68944,3.24375 0.791041,1.615625 1.456265,2.9589396 1.478273,2.9851437 0.02201,0.026204 1.51831,0.2702763 3.325115,0.5423829 1.806805,0.2721066 3.468535,0.5713838 3.692735,0.6650603 0.49466,0.206682 0.702676,0.665465 0.521947,1.1511631 -0.07035,0.1890622 -1.233242,1.4523102 -2.584205,2.8072162 l -2.456295,2.463466 0.53247,3.168549 c 0.292859,1.742703 0.537615,3.349493 0.543903,3.570643 0.01261,0.443686 -0.373844,0.952226 -0.810385,1.066383 -0.179974,0.04706 -1.254957,-0.439043 -3.429287,-1.550727 z m -5.878596,-2.681781 c 1.306088,-0.673959 2.453505,-1.1875 2.653258,-1.1875 0.201114,0 1.334768,0.51112 2.645097,1.192569 2.062281,1.072511 2.293138,1.165457 2.293138,0.923253 0,-0.148123 -0.136358,-1.092592 -0.303017,-2.098818 -0.166658,-1.006228 -0.341263,-2.129013 -0.388012,-2.495079 l -0.085,-0.665575 1.972278,-1.986246 c 1.281079,-1.290151 1.909892,-2.006538 1.794263,-2.044149 C 91.641756,10.296837 90.46926,10.094825 89.134117,9.8797652 87.798977,9.6647055 86.609764,9.4369289 86.491424,9.373595 86.373082,9.310261 85.733262,8.1884074 85.0696,6.8805871 84.405938,5.5727667 83.823277,4.5030872 83.774798,4.5035214 c -0.04848,4.375e-4 -0.582581,0.9988717 -1.186892,2.21875 -0.604312,1.2198783 -1.177521,2.3225638 -1.2738,2.4504123 -0.202293,0.2686272 -0.93887,0.4380374 -3.627452,0.8343023 -1.03125,0.151993 -1.900432,0.299584 -1.931514,0.32798 -0.03108,0.02839 0.764433,0.879321 1.767812,1.890946 1.003379,1.011626 1.881184,1.952022 1.950678,2.08977 0.133164,0.263952 0.01,1.308616 -0.474638,4.024932 -0.273158,1.531095 -0.273927,1.537118 -0.196234,1.537118 0.02948,0 1.089189,-0.534375 2.354903,-1.1875 z"
     id="path207"
     inkscape:connector-curvature="0" />
  <path
     style="fill:#000000;stroke-width:0.25"
     d="m 100.55597,22.570913 c -0.16875,-0.16875 -0.30682,-0.424131 -0.30682,-0.567515 0,-0.143382 0.25788,-1.766606 0.57306,-3.607164 l 0.57306,-3.346467 -2.573059,-2.545688 C 96.03305,9.7445859 95.946219,9.6098569 96.530404,8.9480544 96.79422,8.6491857 97.028501,8.5978497 100.30995,8.1198741 c 1.92406,-0.2802589 3.5123,-0.5235721 3.52942,-0.540696 0.0171,-0.017124 0.68573,-1.377267 1.48579,-3.0225402 0.80005,-1.6452733 1.57005,-3.1179684 1.71111,-3.2726559 0.28703,-0.31477317 0.91407,-0.37777363 1.24412,-0.125 0.1122,0.085937 0.90977,1.5765625 1.77236,3.3125 0.8626,1.7359375 1.60235,3.15625 1.64389,3.15625 0.27617,0 6.33328,0.9155627 6.71785,1.0154364 0.57455,0.1492098 0.88593,0.7029953 0.69112,1.2291623 -0.0647,0.1748453 -1.23909,1.4147763 -2.60968,2.7554013 l -2.49199,2.4375 0.55971,3.1875 c 0.30784,1.753125 0.55989,3.388632 0.56011,3.634461 5e-4,0.522916 -0.41308,0.990539 -0.87598,0.990539 -0.16376,0 -1.69766,-0.735069 -3.40865,-1.633488 l -3.1109,-1.633487 -1.02079,0.527235 c -0.56143,0.28998 -1.96152,1.025049 -3.1113,1.633487 -1.14978,0.608439 -2.23515,1.106253 -2.41193,1.106253 -0.17678,0 -0.45949,-0.138069 -0.62824,-0.306819 z m 4.56977,-3.831974 c 1.86901,-0.987586 2.46486,-1.248351 2.72633,-1.193142 0.18402,0.03886 1.36479,0.613297 2.62393,1.276531 1.25914,0.663234 2.31066,1.184565 2.33671,1.158513 0.026,-0.02605 -0.14491,-1.142722 -0.37992,-2.481488 -0.23501,-1.338766 -0.42871,-2.606584 -0.43046,-2.817372 -0.003,-0.330485 0.27176,-0.656454 1.99378,-2.367623 1.09833,-1.091404 1.97519,-2.006149 1.94857,-2.032767 -0.0266,-0.02662 -1.19244,-0.212105 -2.59071,-0.4121945 -1.39827,-0.20009 -2.66775,-0.4189741 -2.82106,-0.4864093 -0.19439,-0.085507 -0.66248,-0.8893673 -1.54687,-2.656452 l -1.26813,-2.5338428 -1.22004,2.4362697 c -0.67102,1.3399485 -1.32493,2.5277308 -1.45313,2.6395161 -0.15971,0.1392683 -1.05379,0.3238557 -2.84032,0.586399 -1.43398,0.2107338 -2.642722,0.4186438 -2.686101,0.4620228 -0.04338,0.04338 0.783541,0.90053 1.837601,1.904782 1.05407,1.004253 1.96539,1.95457 2.02518,2.111815 0.0738,0.194032 -0.0301,1.080532 -0.32338,2.758819 -0.42543,2.43488 -0.48729,2.910416 -0.37864,2.910416 0.0302,0 1.13121,-0.568706 2.44666,-1.263793 z"
     id="path209"
     inkscape:connector-curvature="0" />
  <path
     style="fill:#000000;stroke-width:0.25"
     d="m 100.93665,22.876529 c -0.44307,-0.167108 -0.72901,-0.597062 -0.71125,-1.06947 0.009,-0.244092 0.24328,-1.763611 0.52022,-3.376708 0.27694,-1.613098 0.50353,-3.041417 0.50353,-3.174043 0,-0.147654 -0.91702,-1.143876 -2.365432,-2.569716 -1.30099,-1.280718 -2.456182,-2.519812 -2.567094,-2.7535424 -0.181585,-0.3826605 -0.182753,-0.4615232 -0.01174,-0.7922291 0.114907,-0.2222054 0.355147,-0.421795 0.608242,-0.5053241 0.230077,-0.075932 1.863904,-0.3540912 3.630724,-0.618131 1.76683,-0.2640399 3.23181,-0.5019112 3.25553,-0.5286029 0.0237,-0.026692 0.72918,-1.4452318 1.56769,-3.1523111 1.4111,-2.8727847 1.5569,-3.1172918 1.95906,-3.285323 0.82033,-0.34275459 0.93202,-0.20765073 2.74286,3.3176591 l 1.63234,3.1778055 2.43016,0.3543967 c 4.20361,0.6130232 4.52057,0.6814014 4.83641,1.0433632 0.56748,0.6503407 0.48671,0.7759773 -2.29366,3.5678661 l -2.57492,2.585582 0.58063,3.447626 c 0.53231,3.160727 0.56533,3.477211 0.39679,3.80313 -0.2604,0.503561 -0.66992,0.663647 -1.21677,0.475649 -0.24114,-0.0829 -1.69206,-0.807895 -3.22425,-1.6111 -1.5322,-0.803207 -2.84521,-1.460374 -2.91781,-1.460374 -0.0726,0 -0.8687,0.387656 -1.76912,0.861459 -2.11449,1.112642 -4.06543,2.093965 -4.45476,2.240745 -0.16906,0.06374 -0.41988,0.07345 -0.55738,0.02159 z m 6.73731,-5.373797 c 0.18023,0 1.40097,0.537205 2.71276,1.193787 2.34288,1.172675 2.3838,1.187598 2.31361,0.84375 -0.34464,-1.688488 -0.74474,-4.539582 -0.71442,-5.090946 0.007,-0.132499 0.86754,-1.101642 1.91167,-2.153652 1.04414,-1.052009 1.87383,-1.934079 1.84375,-1.960155 -0.0301,-0.02608 -1.20341,-0.223402 -2.60742,-0.4385 -2.00043,-0.3064713 -2.60894,-0.4440028 -2.8125,-0.6356583 -0.14287,-0.1345141 -0.76476,-1.2602333 -1.38198,-2.5015983 -0.61722,-1.2413652 -1.16415,-2.2570274 -1.2154,-2.2570274 -0.0512,0 -0.63175,1.0682146 -1.29002,2.3738104 -0.65826,1.3055957 -1.30305,2.4306467 -1.43285,2.5001135 -0.1298,0.069467 -1.32241,0.2994215 -2.65025,0.5110105 -1.32784,0.2115886 -2.497051,0.4114376 -2.598245,0.4441076 -0.122734,0.03962 0.470295,0.700731 1.781255,1.985736 1.43226,1.403908 1.96523,2.005948 1.96523,2.219891 0,0.161455 -0.16875,1.317856 -0.375,2.569778 -0.20625,1.251924 -0.375,2.391465 -0.375,2.532314 0,0.224028 0.28778,0.106299 2.29856,-0.940336 1.26421,-0.658034 2.44602,-1.196425 2.62625,-1.196425 z"
     id="path211"
     inkscape:connector-curvature="0" />
</svg>
