<?xml version="1.0" encoding="UTF-8" standalone="no"?>
<svg
   xmlns:dc="http://purl.org/dc/elements/1.1/"
   xmlns:cc="http://creativecommons.org/ns#"
   xmlns:rdf="http://www.w3.org/1999/02/22-rdf-syntax-ns#"
   xmlns:svg="http://www.w3.org/2000/svg"
   xmlns="http://www.w3.org/2000/svg"
   xmlns:sodipodi="http://sodipodi.sourceforge.net/DTD/sodipodi-0.dtd"
   xmlns:inkscape="http://www.inkscape.org/namespaces/inkscape"
   height="24"
   viewBox="0 0 120 24"
   width="120"
   version="1.1"
   id="svg3763"
   sodipodi:docname="1_star.svg"
   inkscape:version="0.92.3 (2405546, 2018-03-11)"
   style="fill:none;stroke:#000000;stroke-width:2;stroke-linecap:round;stroke-linejoin:round">
  <metadata
     id="metadata3769">
    <rdf:RDF>
      <cc:Work
         rdf:about="">
        <dc:format>image/svg+xml</dc:format>
        <dc:type
           rdf:resource="http://purl.org/dc/dcmitype/StillImage" />
        <dc:title />
      </cc:Work>
    </rdf:RDF>
  </metadata>
  <defs
     id="defs3767" />
  <sodipodi:namedview
     pagecolor="#ffffff"
     bordercolor="#666666"
     borderopacity="1"
     objecttolerance="10"
     gridtolerance="10"
     guidetolerance="10"
     inkscape:pageopacity="0"
     inkscape:pageshadow="2"
     inkscape:window-width="1362"
     inkscape:window-height="729"
     id="namedview3765"
     showgrid="false"
     inkscape:zoom="7.0443991"
     inkscape:cx="57.784972"
     inkscape:cy="16.31915"
     inkscape:window-x="0"
     inkscape:window-y="18"
     inkscape:window-maximized="0"
     inkscape:current-layer="svg3763" />
  <path
     style="stroke-width:2.09562635"
     d="M 12.298743,2.5355681 9.0721845,9.0953479 1.8324274,10.148646 7.0722513,15.255141 5.8322932,22.454898 12.298743,19.055013 18.778526,22.454898 17.538567,15.255141 22.77839,10.148646 15.538634,9.0953479 Z"
     id="polygon3761"
     inkscape:connector-curvature="0" />
  <polygon
     points="12,2 15.09,8.26 22,9.27 17,14.14 18.18,21.02 12,17.77 5.82,21.02 7,14.14 2,9.27 8.91,8.26 "
     id="polygon3761-3"
     transform="matrix(1.0478131,0,0,1.0478131,23.623727,0.43543953)" />
  <polygon
     points="17,14.14 18.18,21.02 12,17.77 5.82,21.02 7,14.14 2,9.27 8.91,8.26 12,2 15.09,8.26 22,9.27 "
     id="polygon3761-6"
     transform="matrix(1.0478131,0,0,1.0478131,47.516258,0.43543953)" />
  <polygon
     points="22,9.27 17,14.14 18.18,21.02 12,17.77 5.82,21.02 7,14.14 2,9.27 8.91,8.26 12,2 15.09,8.26 "
     id="polygon3761-7"
     transform="matrix(1.0478131,0,0,1.0478131,71.40879,0.43543953)" />
  <polygon
     points="22,9.27 17,14.14 18.18,21.02 12,17.77 5.82,21.02 7,14.14 2,9.27 8.91,8.26 12,2 15.09,8.26 "
     id="polygon3761-5"
     transform="matrix(1.0478131,0,0,1.0478131,95.301321,0.43543953)" />
  <path
     style="fill:#000000;stroke-width:0.59671658"
     d="M 7.8785341,17.489181 8.3380052,14.799843 6.4199914,12.864628 C 5.3650836,11.800259 4.6323597,10.928398 4.7917168,10.927158 5.28922,10.923289 8.9322732,10.318515 9.5060395,10.144546 9.8310994,10.045986 10.487445,9.012724 11.128364,7.5905779 l 1.076399,-2.3884408 1.021679,2.0431521 c 1.37209,2.7439001 1.626987,2.9825108 3.429417,3.2102818 0.854349,0.10796 2.002472,0.276082 2.551384,0.373591 l 0.998023,0.177298 -1.965865,1.981047 -1.965865,1.981045 0.445307,2.530394 c 0.244919,1.391716 0.445494,2.56298 0.445719,2.602808 2.25e-4,0.0398 -1.121235,-0.483864 -2.492132,-1.163758 l -2.492542,-1.236173 -2.2433345,1.238348 c -1.2338335,0.681091 -2.305019,1.238348 -2.3804122,1.238348 -0.075391,0 0.069685,-1.210202 0.3223928,-2.689338 z"
     id="path3862"
     inkscape:connector-curvature="0" />
  <path
     style="fill:#000000;stroke-width:0.28391349"
     d="M 5.0929056,23.025421 C 4.9203651,22.806072 4.8189788,22.516712 4.856645,22.351126 4.8929341,22.191595 5.1680372,20.599763 5.4679853,18.813722 L 6.0133454,15.566375 3.4226347,13.054889 C 0.67415828,10.390463 0.5251331,10.164646 1.1047028,9.5425513 1.4151657,9.2093085 1.293156,9.2351525 5.37454,8.638121 7.0531786,8.3925669 8.4377246,8.1816622 8.4513089,8.1694438 8.4648933,8.1572255 9.1228908,6.8068926 9.9135256,5.168704 11.382231,2.1255599 11.750385,1.5483184 12.222541,1.5483184 c 0.604354,0 0.87433,0.3885586 2.397759,3.4509388 0.861874,1.7325275 1.577593,3.1604426 1.590487,3.1731446 0.01289,0.012702 1.588518,0.2540322 3.501385,0.5362893 5.120072,0.7555028 5.106573,0.7145491 1.446891,4.3899369 l -2.563385,2.574387 0.557641,3.194027 c 0.306703,1.756715 0.557914,3.369698 0.558248,3.584408 7.1e-4,0.473259 -0.450196,0.959207 -0.886625,0.955479 -0.175671,-0.0015 -1.718394,-0.732193 -3.428273,-1.623762 l -3.10887,-1.621035 -3.0849237,1.623764 c -1.6967081,0.893068 -3.2475549,1.623762 -3.4463263,1.623762 -0.2237763,0 -0.4764992,-0.146322 -0.6636434,-0.384237 z m 2.4010082,-2.561366 c -0.00549,-0.05856 -0.064878,-0.234228 -0.1319793,-0.390381 -0.1081089,-0.251583 -0.123138,-0.239458 -0.1319793,0.106468 -0.00549,0.214709 0.053903,0.390381 0.1319793,0.390381 0.078076,0 0.1374669,-0.04791 0.1319793,-0.106468 z m 9.9469502,-0.03549 c 0,-0.07808 -0.127761,-0.141957 -0.283914,-0.141957 -0.162506,0 -0.283913,-0.09464 -0.283913,-0.221313 0,-0.121722 -0.06388,-0.181832 -0.141957,-0.133578 -0.226902,0.140233 -0.166051,0.299886 0.177446,0.465548 0.412538,0.198958 0.532338,0.206002 0.532338,0.0313 z M 5.1632384,11.834659 C 4.810997,11.402201 4.5227995,10.986978 4.5227995,10.91194 c 0,-0.07504 -0.095821,-0.136433 -0.2129351,-0.136433 -0.1171143,0 -0.2129351,0.04606 -0.2129351,0.102351 0,0.09547 1.5739805,1.743087 1.6651816,1.743087 0.022862,0 -0.2466311,-0.353829 -0.5988725,-0.786286 z"
     id="path256"
     inkscape:connector-curvature="0" />
  <path
     style="fill:#000000;stroke-width:0.28391349"
     d="M 5.334136,23.318644 C 5.1241138,23.208602 4.9120568,22.958315 4.8628982,22.762451 4.8137394,22.566588 5.0317999,20.891338 5.3474768,19.039675 l 0.573958,-3.36666 -2.4586222,-2.484243 C 2.1105703,11.822438 0.92894999,10.556514 0.83698962,10.375607 0.63385886,9.976002 0.93573714,9.4173866 1.4631866,9.2168507 1.646062,9.1473216 3.159884,8.8925058 4.8272353,8.6505933 6.4945866,8.4086809 7.9865442,8.1830788 8.1426966,8.1492552 8.3519822,8.1039228 8.7924026,7.3290389 9.8182268,5.2012961 10.583616,3.6137421 11.35373,2.1343831 11.529592,1.9138317 11.906021,1.441744 12.48029,1.3830066 12.910746,1.7725644 c 0.157852,0.1428544 0.962204,1.6041217 1.787448,3.2472606 0.825244,1.643139 1.523067,3.0127867 1.550717,3.0436615 0.02765,0.030875 1.500724,0.2744928 3.273497,0.5413735 3.275959,0.4931762 4.102001,0.7068096 4.252836,1.0998792 0.205486,0.5354878 -0.194555,1.0747598 -2.596858,3.5006788 l -2.488341,2.512802 0.519242,3.010468 c 0.623415,3.614439 0.649556,3.999695 0.297769,4.388417 -0.47118,0.520648 -0.96714,0.368552 -4.181362,-1.282297 L 12.259442,20.25996 9.5362735,21.695797 c -3.3468856,1.764704 -3.683373,1.894654 -4.2021375,1.622847 z"
     id="path258"
     inkscape:connector-curvature="0" />
  <path
     style="fill:#000000;stroke-width:0.28391349"
     d="m 29.112903,23.188674 c -0.431254,-0.302063 -0.410886,-0.673664 0.240758,-4.39261 l 0.54723,-3.123049 -2.623864,-2.648515 c -2.295411,-2.316977 -2.611401,-2.690147 -2.524303,-2.981092 0.220164,-0.7354424 0.402102,-0.7954807 4.04468,-1.3347206 1.912867,-0.2831769 3.486774,-0.5248826 3.497571,-0.5371237 0.0108,-0.012241 0.728297,-1.4407318 1.594444,-3.1744242 1.525945,-3.0543546 1.800178,-3.4488211 2.397615,-3.4488211 0.467641,0 0.82638,0.5640999 2.296057,3.6104374 0.788499,1.6343976 1.44854,2.9864743 1.466756,3.004615 0.01821,0.018141 1.43849,0.2334737 3.156167,0.478518 3.589033,0.5120125 4.002852,0.6045959 4.268563,0.9550014 0.462304,0.6096658 0.299809,0.8447508 -2.387636,3.4542418 l -2.590711,2.515562 0.602104,3.531101 c 0.590823,3.464935 0.597209,3.537751 0.340854,3.885993 -0.480592,0.652849 -0.809002,0.558042 -4.125373,-1.190944 l -3.103046,-1.63648 -3.103367,1.62505 c -1.706851,0.893778 -3.232883,1.62577 -3.391182,1.626648 -0.158299,8.52e-4 -0.429792,-0.09785 -0.603317,-0.219388 z m 4.416021,-3.839401 c 1.262436,-0.671688 2.45504,-1.224759 2.650231,-1.229046 0.19519,-0.0043 1.400604,0.54827 2.678697,1.227903 1.278092,0.679633 2.356973,1.202527 2.397513,1.161987 0.04054,-0.04054 -0.126814,-1.246845 -0.371898,-2.680678 -0.245086,-1.433834 -0.44561,-2.688735 -0.44561,-2.788669 0,-0.09993 0.910298,-1.062149 2.022884,-2.138256 1.112586,-1.076108 1.990943,-1.98871 1.951905,-2.028004 -0.03904,-0.0393 -1.252768,-0.243503 -2.697178,-0.453796 C 39.668824,10.122742 39.026614,9.9780586 38.805355,9.7650953 38.649202,9.6147975 38.005008,8.4231932 37.373812,7.1170859 l -1.147629,-2.3747406 -1.29264,2.5722669 c -0.710952,1.4147468 -1.38702,2.608484 -1.502373,2.6527492 -0.115354,0.044266 -1.380812,0.2496946 -2.812131,0.4565086 -1.431319,0.206815 -2.630997,0.404462 -2.665952,0.439216 -0.03496,0.03475 0.845004,0.939564 1.955463,2.010689 1.557158,1.501999 2.017823,2.028683 2.013793,2.302391 -0.0029,0.195191 -0.196116,1.438844 -0.429428,2.763675 -0.46107,2.618124 -0.462701,2.630682 -0.341767,2.630682 0.04534,0 1.115339,-0.549563 2.377776,-1.22125 z"
     id="path260"
     inkscape:connector-curvature="0" />
  <path
     style="fill:#000000;stroke-width:0.28391349"
     d="m 29.336241,23.379613 c -0.72673,-0.248447 -0.729225,-0.677043 -0.02782,-4.778599 l 0.495712,-2.898742 -2.561737,-2.585611 c -2.58912,-2.61325 -2.754727,-2.850953 -2.42087,-3.4747716 0.20792,-0.3885026 0.749612,-0.522161 4.226861,-1.042947 1.735385,-0.2599078 3.179389,-0.4993418 3.208898,-0.5320757 0.02951,-0.032734 0.728853,-1.4039027 1.554097,-3.0470417 0.825244,-1.6431389 1.629596,-3.1044062 1.787448,-3.2472606 0.403362,-0.3650372 1.002146,-0.3303501 1.336324,0.077412 0.151968,0.185431 0.914882,1.6466983 1.695365,3.2472607 0.780481,1.6005623 1.440475,2.9346652 1.466653,2.9646728 0.02618,0.030008 1.3113,0.2374075 2.855829,0.4608882 4.468023,0.6464863 4.724651,0.7329423 4.724651,1.5916969 0,0.367959 -0.369654,0.803821 -2.539702,2.994579 l -2.539705,2.563941 0.577401,3.500053 c 0.561771,3.405312 0.57057,3.510477 0.325061,3.88517 -0.425392,0.64923 -1.074292,0.458891 -4.362456,-1.279618 l -2.888117,-1.526997 -2.910113,1.498809 c -3.454314,1.77909 -3.504978,1.799706 -4.003779,1.629181 z m 4.39249,-4.194846 c 1.26782,-0.643206 2.3872,-1.169466 2.487511,-1.169466 0.10031,0 1.250911,0.544108 2.556891,1.209128 1.740039,0.886049 2.374508,1.149535 2.374508,0.986096 0,-0.122669 -0.159701,-1.212552 -0.354892,-2.421963 -0.19519,-1.20941 -0.354892,-2.370983 -0.354892,-2.581271 0,-0.30163 0.408421,-0.791545 1.934732,-2.320783 1.897775,-1.901415 1.926923,-1.940023 1.526035,-2.021306 -0.224783,-0.04558 -1.382961,-0.241902 -2.57373,-0.43628 C 40.134127,10.234543 39.036939,10.00972 38.8867,9.929315 38.736462,9.8489097 38.093137,8.7287993 37.45709,7.4401805 36.821042,6.1515616 36.255741,5.0972372 36.200863,5.0972372 c -0.05488,0 -0.609226,1.0262854 -1.231886,2.2806342 -0.62266,1.254349 -1.231582,2.3710118 -1.35316,2.4814729 -0.126777,0.1151844 -1.216535,0.3557247 -2.555222,0.5640097 -1.283793,0.199744 -2.489016,0.396639 -2.678273,0.437544 -0.313931,0.06785 -0.17185,0.246957 1.620399,2.042643 2.277241,2.281608 2.125234,1.788671 1.567615,5.083544 -0.393148,2.32304 -0.41049,2.48853 -0.2532,2.416145 0.05856,-0.02695 1.143775,-0.575257 2.411595,-1.218463 z"
     id="path262"
     inkscape:connector-curvature="0" />
  <path
     style="fill:#000000;stroke-width:0.28391349"
     d="m 52.930051,23.125744 c -0.156152,-0.156152 -0.283913,-0.410324 -0.283913,-0.564826 0,-0.154501 0.259075,-1.789932 0.575723,-3.63429 l 0.575723,-3.353379 -2.563118,-2.48274 c -2.289143,-2.217356 -2.563117,-2.532118 -2.563117,-2.944696 0,-0.8030157 0.217759,-0.8819591 3.931395,-1.4252364 1.88089,-0.27516 3.461383,-0.500291 3.512208,-0.500291 0.05082,0 0.804095,-1.4440435 1.673933,-3.2089857 1.650819,-3.34959 1.83675,-3.5947191 2.584298,-3.4070966 0.310724,0.077987 0.613617,0.586331 1.998455,3.3540003 0.897722,1.7941451 1.688204,3.262082 1.756626,3.262082 0.134486,0 5.605029,0.7971674 6.376853,0.9292347 0.597987,0.1023222 1.020029,0.5231172 1.025699,1.0226707 0.0037,0.321965 -0.447392,0.829263 -2.573659,2.894622 l -2.578091,2.504242 0.586266,3.398766 c 0.322445,1.869324 0.586264,3.493203 0.586264,3.608622 0,0.341292 -0.551015,0.831215 -0.934866,0.831215 -0.195788,0 -1.705978,-0.713333 -3.355978,-1.585184 -1.65,-0.87185 -3.074501,-1.585183 -3.165558,-1.585183 -0.09106,0 -1.517916,0.713333 -3.170797,1.585183 -1.652881,0.871851 -3.163907,1.585184 -3.357835,1.585184 -0.193929,0 -0.480358,-0.127761 -0.636511,-0.283914 z m 4.654677,-3.854267 2.489726,-1.299047 2.520189,1.299047 c 1.386104,0.714475 2.547424,1.299046 2.580711,1.299046 0.03329,0 -0.121573,-1.069999 -0.344133,-2.377776 -0.606788,-3.565537 -0.773874,-2.996056 1.567119,-5.341233 l 2.016566,-2.020171 -2.660939,-0.393311 C 64.29045,10.22171 62.977236,9.9827502 62.835712,9.9070095 62.69419,9.8312688 62.01298,8.63986 61.321913,7.2594344 L 60.065429,4.7495697 58.857467,7.2513613 c -0.664379,1.3759853 -1.328023,2.5660462 -1.474764,2.6445797 -0.146741,0.078533 -1.467379,0.32049 -2.934751,0.53768 l -2.667949,0.394892 1.994591,1.998157 c 1.731739,1.734834 1.994592,2.05793 1.994592,2.451733 0,0.386794 -0.571638,4.000927 -0.786523,4.972717 -0.03884,0.175672 -0.02946,0.319403 0.02086,0.319403 0.05031,0 1.211859,-0.584571 2.581208,-1.299046 z"
     id="path264"
     inkscape:connector-curvature="0" />
  <path
     style="fill:#000000;stroke-width:0.28391349"
     d="m 53.280015,23.409411 c -0.444229,-0.1691 -0.678088,-0.532233 -0.66391,-1.030909 0.0071,-0.24942 0.255217,-1.880802 0.551389,-3.625292 l 0.538495,-3.171799 -2.50407,-2.438441 c -1.377238,-1.341143 -2.543599,-2.573735 -2.591914,-2.739094 -0.15524,-0.5313237 0.142299,-1.0183137 0.729228,-1.1935461 0.296311,-0.088466 1.940154,-0.3660428 3.652984,-0.6168373 l 3.114236,-0.4559897 1.570504,-3.0600406 c 0.863777,-1.6830222 1.658101,-3.1655887 1.765164,-3.2945922 0.251119,-0.3025793 1.061606,-0.3035037 1.312249,-0.0015 0.10638,0.1281802 0.902137,1.610265 1.768349,3.2935217 l 1.574931,3.0604666 3.323986,0.4766357 c 1.95758,0.2807026 3.458425,0.5641565 3.651026,0.6895431 0.37027,0.2410522 0.584037,0.7070648 0.489743,1.0676438 -0.03496,0.13369 -1.195126,1.368243 -2.578147,2.743453 l -2.514582,2.500381 0.534328,3.082069 c 0.29388,1.695138 0.537312,3.34366 0.54096,3.663383 0.0075,0.656711 -0.339572,1.086677 -0.877156,1.086677 -0.178952,0 -1.730217,-0.70298 -3.447257,-1.562179 l -3.121887,-1.562178 -2.839033,1.422801 c -3.491082,1.749579 -3.618961,1.803106 -3.979616,1.66582 z m 4.353672,-4.252066 2.46518,-1.271223 2.456407,1.271223 c 1.351024,0.699171 2.476053,1.271221 2.500067,1.271221 0.02401,0 -0.0419,-0.527014 -0.146463,-1.171143 -0.563869,-3.473413 -0.629094,-4.087141 -0.468065,-4.404214 0.08822,-0.173716 0.964331,-1.127599 1.946906,-2.119739 1.167634,-1.179002 1.715538,-1.825307 1.581655,-1.865714 -0.112663,-0.034 -1.286361,-0.228896 -2.608219,-0.433095 C 63.728705,10.182482 62.873512,9.9871302 62.695076,9.8256471 62.550589,9.6948882 61.921331,8.5775036 61.296724,7.3425703 60.672118,6.107637 60.115139,5.1009497 60.058993,5.1054874 c -0.05615,0.00454 -0.54813,0.935041 -1.0933,2.0677853 -1.441973,2.9961103 -1.221667,2.8216623 -4.119226,3.2617843 -1.327295,0.201609 -2.503841,0.394737 -2.614545,0.429175 -0.130124,0.04048 0.427625,0.700801 1.577721,1.867871 0.97845,0.992892 1.849878,1.941642 1.936507,2.108333 0.121122,0.233065 0.07792,0.806929 -0.187026,2.484243 -0.189493,1.199642 -0.387435,2.38878 -0.439872,2.642528 -0.05244,0.253747 -0.06281,0.461359 -0.02304,0.461359 0.03976,0 1.181628,-0.57205 2.537475,-1.271221 z"
     id="path266"
     inkscape:connector-curvature="0" />
  <path
     style="fill:#000000;stroke-width:0.28391349"
     d="m 76.777994,23.021517 c -0.197912,-0.251603 -0.281191,-0.51377 -0.236742,-0.745273 0.03771,-0.196423 0.311663,-1.787972 0.608776,-3.536776 l 0.540205,-3.179643 -2.586077,-2.498627 C 72.456666,10.503236 72.31011,10.29744 72.664454,9.6353422 72.855575,9.2782293 73.307131,9.174801 76.99172,8.6441884 c 1.717677,-0.2473602 3.139076,-0.4918415 3.158664,-0.5432918 0.287647,-0.7555215 2.973434,-5.9990659 3.192685,-6.2331755 0.327882,-0.3501029 0.68135,-0.4022394 1.123342,-0.1656927 0.173126,0.092654 0.902859,1.4036536 1.837132,3.3004944 0.852458,1.7307314 1.597372,3.161455 1.655364,3.1793856 0.05799,0.017931 1.634971,0.2587753 3.504398,0.5352104 3.677614,0.5438147 3.911814,0.6285071 3.911814,1.4146082 0,0.392165 -0.316789,0.761577 -2.546972,2.970049 l -2.546971,2.522179 0.559576,3.25589 c 0.307768,1.79074 0.559578,3.414762 0.559578,3.608939 0,0.445596 -0.465239,0.920874 -0.901421,0.920874 -0.183477,0 -1.726242,-0.732469 -3.428366,-1.627709 l -3.094773,-1.62771 -3.083277,1.62771 c -1.695803,0.89524 -3.246607,1.627709 -3.446233,1.627709 -0.226363,0 -0.477854,-0.146071 -0.668266,-0.388141 z m 4.400792,-3.595543 c 1.187074,-0.629502 2.31938,-1.205785 2.516235,-1.280629 0.308081,-0.117133 0.703241,0.04373 2.83793,1.15526 1.364006,0.710236 2.505223,1.266129 2.536036,1.235316 0.03081,-0.03081 -0.134715,-1.159741 -0.367841,-2.508726 -0.233125,-1.348986 -0.423864,-2.6318 -0.423864,-2.850699 0,-0.326084 0.362725,-0.747465 2.007473,-2.332097 1.104109,-1.063754 1.982467,-1.957071 1.951905,-1.985149 C 92.2061,10.83117 91.005597,10.635425 89.56888,10.424255 88.132162,10.213086 86.866704,10.005789 86.756749,9.9635949 86.646794,9.9214012 85.977743,8.7300565 85.269968,7.316162 L 83.983104,4.7454446 82.736791,7.2349917 c -0.685472,1.3692509 -1.332266,2.5590358 -1.437319,2.6439667 -0.105053,0.084931 -1.372796,0.3275986 -2.817206,0.5392626 -1.44441,0.211664 -2.656048,0.413815 -2.692529,0.449224 -0.03648,0.03541 0.783808,0.909924 1.822866,1.943366 1.039057,1.033442 1.947193,1.982623 2.01808,2.10929 0.08407,0.150219 -0.0191,1.086322 -0.296679,2.69194 -0.414925,2.400086 -0.484703,2.958482 -0.369702,2.958482 0.03089,0 1.027409,-0.515048 2.214484,-1.144549 z"
     id="path268"
     inkscape:connector-curvature="0" />
  <path
     style="fill:#000000;stroke-width:0.28391349"
     d="M 77.04848,23.358182 C 76.400322,23.03504 76.39821,22.668959 77.0236,19.046224 l 0.582319,-3.373209 -2.456787,-2.484243 c -1.351233,-1.366334 -2.519939,-2.612004 -2.597124,-2.768157 -0.07719,-0.156152 -0.09115,-0.413892 -0.03103,-0.5727552 0.238892,-0.6312957 0.38401,-0.6734106 4.399764,-1.2768589 1.288257,-0.1935867 2.520453,-0.3892562 2.738212,-0.4348211 0.350563,-0.073353 0.550977,-0.392621 1.749217,-2.7865797 1.831596,-3.659337 1.926219,-3.8012817 2.533986,-3.8012817 0.660279,0 0.881344,0.3185023 2.561753,3.6908755 0.758635,1.5224861 1.398725,2.789384 1.422421,2.8153286 0.0237,0.025945 1.469816,0.2659696 3.213598,0.5333888 1.743783,0.2674194 3.382088,0.5558862 3.640678,0.6410372 0.517313,0.1703464 0.801819,0.6826216 0.652526,1.1749275 -0.05015,0.165359 -1.208193,1.427418 -2.573438,2.804576 l -2.482264,2.503923 0.515059,3.03239 c 0.608351,3.581634 0.638057,4.0018 0.308672,4.365766 -0.500948,0.553543 -0.727893,0.485546 -4.047946,-1.21285 l -3.205615,-1.639855 -2.73163,1.43989 c -3.259037,1.717896 -3.699939,1.893566 -4.167491,1.660466 z m 6.885092,-5.342881 c 0.126565,0 1.315377,0.54334 2.641806,1.207422 1.326428,0.664082 2.409544,1.159156 2.406924,1.100165 -0.0026,-0.05899 -0.188775,-1.257107 -0.413675,-2.662478 l -0.408912,-2.555222 0.28121,-0.457983 c 0.154665,-0.251891 1.013178,-1.141379 1.907807,-1.97664 0.894627,-0.835261 1.604836,-1.583933 1.578242,-1.663716 -0.02659,-0.07978 -1.188535,-0.323756 -2.582092,-0.542165 C 87.845617,10.229709 86.719221,9.9840703 86.586003,9.8630421 86.462177,9.7505472 85.851417,8.6322204 85.228757,7.3778714 84.606097,6.1235226 84.047497,5.0972372 83.987425,5.0972372 c -0.06007,0 -0.651549,1.0832337 -1.314392,2.4071863 -1.392426,2.7812125 -0.959891,2.4734426 -4.190767,2.9819425 -1.054029,0.165892 -2.069612,0.334346 -2.256851,0.374343 -0.309109,0.06603 -0.162156,0.252643 1.597013,2.028016 1.43133,1.444514 1.937449,2.046317 1.937449,2.303732 0,0.19164 -0.159701,1.321572 -0.354892,2.51096 -0.195191,1.189387 -0.354892,2.293741 -0.354892,2.454118 0,0.256517 0.279885,0.145208 2.326681,-0.925319 1.279674,-0.669304 2.430233,-1.216915 2.556798,-1.216915 z"
     id="path270"
     inkscape:connector-curvature="0" />
  <path
     style="fill:#000000;stroke-width:0.28391349"
     d="m 100.7205,23.150056 c -0.33343,-0.368432 -0.29969,-0.838303 0.31489,-4.385145 l 0.54655,-3.154201 -2.467189,-2.431761 c -1.356953,-1.337469 -2.533445,-2.555564 -2.614426,-2.706877 -0.08098,-0.151314 -0.110127,-0.392039 -0.06477,-0.5349457 0.191486,-0.603319 0.533899,-0.707058 4.056485,-1.2289689 1.9093,-0.2828855 3.4803,-0.5243526 3.49109,-0.5365937 0.0108,-0.012241 0.7283,-1.4407318 1.59445,-3.1744242 1.52594,-3.0543546 1.80018,-3.4488211 2.39761,-3.4488211 0.44789,0 0.77213,0.5138929 2.30635,3.6553863 0.81027,1.6591195 1.54078,3.0178783 1.62336,3.0194639 0.0826,0.00159 1.65133,0.2231237 3.48612,0.4923066 3.15159,0.4623706 3.35421,0.5103957 3.66576,0.8688354 0.24048,0.2766681 0.30524,0.4771934 0.23915,0.7404984 -0.0533,0.212392 -1.12836,1.368682 -2.61064,2.807893 l -2.52001,2.446806 0.59436,3.453716 c 0.3269,1.899543 0.56104,3.549536 0.52032,3.66665 -0.14307,0.411418 -0.50433,0.709784 -0.85942,0.709784 -0.19726,0 -1.75018,-0.732375 -3.45094,-1.627499 l -3.0923,-1.627498 -3.09255,1.625947 c -1.70091,0.89427 -3.25833,1.626644 -3.46093,1.627498 -0.20261,8.52e-4 -0.47411,-0.115269 -0.60332,-0.25805 z m 4.49413,-3.804073 c 1.26379,-0.673499 2.45749,-1.22571 2.65268,-1.227141 0.19519,-0.0014 1.39933,0.553885 2.67586,1.234031 1.27653,0.680148 2.3546,1.202996 2.39571,1.161885 0.0411,-0.04111 -0.12496,-1.223441 -0.36906,-2.627401 -0.24409,-1.403958 -0.4438,-2.666008 -0.4438,-2.804555 0,-0.138562 0.91017,-1.125993 2.02288,-2.194586 1.11259,-1.068477 1.99094,-1.975452 1.9519,-2.015502 -0.039,-0.04005 -1.25276,-0.243212 -2.69717,-0.451471 -1.81995,-0.262405 -2.70955,-0.4513689 -2.89771,-0.6155106 -0.14932,-0.1302717 -0.79624,-1.3228268 -1.4376,-2.6501224 l -1.1661,-2.4132647 -1.24815,2.5006148 c -0.68649,1.3753382 -1.35716,2.5686898 -1.49039,2.6518925 -0.13323,0.083203 -1.41598,0.3208754 -2.85056,0.5281604 -1.43457,0.207286 -2.639481,0.40788 -2.677567,0.445766 -0.03809,0.03788 0.841327,0.942695 1.954247,2.010689 1.30169,1.249143 2.02207,2.043082 2.01951,2.22572 -0.002,0.156152 -0.19414,1.401823 -0.42657,2.768157 -0.46424,2.729087 -0.46015,2.697178 -0.34588,2.697178 0.044,0 1.11399,-0.551044 2.37777,-1.22454 z"
     id="path272"
     inkscape:connector-curvature="0" />
  <path
     style="fill:#000000;stroke-width:0.28391349"
     d="m 100.96014,23.399894 c -0.16696,-0.06176 -0.35269,-0.191775 -0.41272,-0.288916 -0.19747,-0.319509 -0.0856,-1.476698 0.43175,-4.467576 l 0.51036,-2.950313 -2.560354,-2.573978 c -2.601975,-2.615814 -2.75919,-2.842491 -2.416086,-3.483586 0.201914,-0.3772808 0.774836,-0.5169518 4.29262,-1.0464863 1.69857,-0.2556866 3.11277,-0.4911655 3.14266,-0.5232865 0.0299,-0.032121 0.72491,-1.399893 1.54446,-3.0394934 0.81956,-1.6396005 1.62309,-3.1008678 1.78563,-3.2472607 0.32966,-0.296902 0.91372,-0.3492667 1.20445,-0.1079847 0.10483,0.087001 0.87892,1.5163283 1.72019,3.1762822 0.84128,1.6599541 1.60212,3.0877315 1.69077,3.1728388 0.0886,0.085107 1.5882,0.3579 3.33234,0.6062058 3.14172,0.4472712 3.88082,0.6462754 4.05142,1.0908513 0.23434,0.6106765 0.0457,0.8706995 -2.46112,3.3918825 l -2.5493,2.563941 0.56631,3.406962 c 0.31146,1.873829 0.53145,3.549532 0.48886,3.723782 -0.0426,0.174252 -0.25296,0.407594 -0.46751,0.518537 -0.52743,0.272747 -0.78492,0.17339 -4.14842,-1.600764 l -2.76816,-1.460123 -2.95108,1.514626 c -3.20647,1.645708 -3.57084,1.792631 -4.02707,1.623859 z m 4.45675,-4.215127 c 1.26782,-0.643206 2.37404,-1.169466 2.45826,-1.169466 0.0842,0 1.23482,0.543287 2.55689,1.207306 1.81244,0.910309 2.40376,1.150778 2.40376,0.977518 0,-0.187235 -0.25523,-1.80952 -0.76807,-4.882002 -0.0498,-0.298418 0.25742,-0.674481 1.9307,-2.363255 1.94482,-1.962835 1.98075,-2.010224 1.58479,-2.090447 -0.22282,-0.04515 -1.3794,-0.241121 -2.57017,-0.435499 -1.19076,-0.194379 -2.28944,-0.419996 -2.44149,-0.5013723 -0.15205,-0.081376 -0.80195,-1.2014868 -1.44421,-2.4891346 -0.64226,-1.2876479 -1.20619,-2.3411779 -1.25316,-2.3411779 -0.047,0 -0.56227,0.9605286 -1.14509,2.1345079 -0.58282,1.1739794 -1.18799,2.2915861 -1.34481,2.4835706 -0.25416,0.3111393 -0.53961,0.3882913 -2.62742,0.7101353 -1.28826,0.198591 -2.49556,0.394146 -2.68289,0.434568 -0.309245,0.06673 -0.156833,0.258959 1.65578,2.088353 1.68328,1.698866 1.98682,2.070518 1.93546,2.369751 -0.25415,1.480811 -0.76639,4.782553 -0.76639,4.939909 0,0.106807 0.0479,0.172145 0.10646,0.145198 0.0586,-0.02695 1.14378,-0.575257 2.4116,-1.218463 z"
     id="path274"
     inkscape:connector-curvature="0" />
</svg>
